{
    "title": "Donor",
    "description": "Base schema for donors.",
    "id": "/profiles/donor.json",
    "$schema": "http://json-schema.org/draft-04/schema#",
    "type": "object",
    "required": [ "award", "lab", "organism"],
    "mixinProperties": [
        { "$ref": "mixins.json#/schema_version" },
        { "$ref": "mixins.json#/uuid" },
        { "$ref": "mixins.json#/accession" },
        { "$ref": "mixins.json#/aliases" },
        { "$ref": "mixins.json#/attribution" },
        { "$ref": "mixins.json#/accessioned_status" },
        { "$ref": "mixins.json#/submitted" },
        { "$ref": "mixins.json#/references" },
        { "$ref": "mixins.json#/notes" }
    ],
    "properties": {
        "schema_version": {
            "hidden comment": "Bump the default in the subclasses."
        },
        "accession": {
            "accessionType": "DO"
        },
        "organism": {
            "title": "Organism",
            "description": "Organism of the donor.",
            "comment": "Do not submit, value is assigned by the object.",
            "type": "string",
            "linkTo": "Organism"
        },
        "url": {
            "title": "URL",
            "description": "An external resource with additional information about the donor.",
            "type": "string",
            "format": "uri"
        }
    }
}
