{
    "title": "Mixin properties",
    "schema_version": {
        "schema_version": {
            "title": "Schema Version",
            "comment":  "Do not submit, value is assigned by the server. The version of the JSON schema that the server uses to validate the object. Schema version indicates generation of schema used to save version to to enable upgrade steps to work. Individual schemas should set the default.",
            "type": "string",
            "pattern": "^\\d+(\\.\\d+)*$",
            "requestMethod": []
        }
    },
    "uuid": {
        "uuid": {
            "title": "UUID",
            "type": "string",
            "format": "uuid",
            "serverDefault": "uuid4",
            "permission": "import_items",
            "requestMethod": "POST"
        }
    },
    "accession": {
        "accession": {
            "title": "Accession",
            "description": "A unique identifier to be used to reference the object.",
            "comment": "Only admins are allowed to set or update this value.",
            "type": "string",
            "format": "accession",
            "serverDefault": "accession",
            "permission": "import_items"
        },
        "alternate_accessions": {
            "title": "Alternate accessions",
            "description": "Accessions previously assigned to objects that have been merged with this object.",
            "type": "array",
            "default": [],
            "permission": "import_items",
            "items": {
                "title": "Alternate Accession",
                "description": "An accession previously assigned to an object that has been merged with this object.",
                "comment":"Only admins are allowed to set or update this value.",
                "type": "string",
                "format": "accession"
            }
        }
    },
    "aliases": {
        "aliases": {
            "title": "Lab aliases",
            "description": "Lab specific identifiers to reference an object.",
            "type": "array",
            "default": [],
            "items": {
                "uniqueKey": "alias",
                "title": "Lab alias",
                "description": "A lab specific identifier to reference an object.",
                "comment": "Current convention is colon separated lab name and lab identifier. (e.g. john-doe:42).",
                "type":  "string",
                "pattern": "^\\S+:\\S+"
            }
        }
    },
    "accessioned_status": {
        "status": {
            "title": "Status",
            "type": "string",
            "default": "in progress",
            "enum": [
                "in progress",
                "deleted",
                "replaced",
                "released",
                "revoked"
            ]
        }
    },
    "standard_status": {
        "status": {
            "title": "Status",
            "type": "string",
            "default": "in progress",
            "enum" : [
                "in progress",
                "deleted",
                "replaced",
                "released"
            ]
        }
    },
    "shared_status": {
        "status": {
            "title": "Status",
            "type": "string",
            "default": "current",
            "enum" : [
                "current",
                "deleted",
                "replaced",
                "disabled"
            ]
        }
    },
    "submitted": {
        "date_created": {
            "rdfs:subPropertyOf": "dc:created",
            "title": "Date created",
            "comment": "Do not submit, value is assigned by the server. The date the object is created.",
            "type": "string",
            "anyOf": [
                {"format": "date-time"},
                {"format": "date"}
            ],
            "serverDefault": "now",
            "permission": "import_items"
        },
        "submitted_by": {
            "rdfs:subPropertyOf": "dc:creator",
            "title": "Submitted by",
            "comment": "Do not submit, value is assigned by the server. The user that created the object.",
            "type": "string",
            "linkTo": "User",
            "serverDefault": "userid",
            "permission": "import_items"
        }
    },
    "references": {
        "references": {
            "title": "References",
            "description": "The publications that provide more information about the object.",
            "type": "array",
            "default": [],
            "items": {
                "title": "Reference",
                "description": "A publication that provide smore information about the object.",
                "type": "string",
                "linkTo": "Publication"
            }
        }
    },
    "attribution": {
        "lab": {
            "title": "Lab",
             "description": "Lab associated with the submission.",
            "comment": "See lab.json for list of available identifiers.",
            "type": "string",
            "linkTo": "Lab",
            "linkSubmitsFor": true
        },
        "award": {
            "title": "Grant",
            "description": "Grant associated with the submission.",
            "comment": "See award.json for list of available identifiers.",
            "type": "string",
            "linkTo": "Award"
        }
    },
    "attachment": {
        "attachment": {
            "title": "Document file metadata",
            "type": "object",
            "additionalProperties": false,
            "formInput": "file",
            "properties": {
                "download": {
                    "title": "File Name",
                    "type": "string"
                },
                "href": {
                    "comment": "Internal webapp URL for document file",
                    "type": "string"
                },
                "type": {
                    "title": "MIME type",
                    "type": "string",
                    "enum": [
                        "application/pdf",
                        "text/plain",
                        "text/tab-separated-values",
                        "image/jpeg",
                        "image/tiff",
                        "image/gif",
                        "text/html",
                        "image/png",
                        "image/svs",
                        "text/autosql"
                    ]
                },
                "md5sum": {
                    "title": "MD5sum",
                    "type": "string",
                    "format": "md5sum"
                },
                "size": {
                    "title": "File size",
                    "type": "integer"
                },
                "width": {
                    "title": "Image width",
                    "type": "integer"
                },
                "height": {
                    "title": "Image height",
                    "type": "integer"
                }
            }
        }
    },
    "biosample_classification": {
        "biosample_term_id": {
            "@type": "@id",
            "title": "Ontology ID",
            "description": "Ontology identifier describing biosample.",
            "comment": "NTR is a new term request identifier provided by the DCC.",
            "type": "string",
            "pattern": "^(UBERON|EFO|CL|NTR|FBbt|WBbt):[0-9]{2,8}$"
        },
        "biosample_term_name": {
            "@id": null,
            "title": "Ontology term",
            "description": "Ontology term describing biosample.",
            "type":  "string"
        },
        "biosample_type": {
            "title": "Biosample type",
            "description": "The categorization of the biosample.",
            "type": "string",
            "enum" : [
                "primary cell",
                "immortalized cell line",
                "tissue",
                "in vitro differentiated cells",
                "induced pluripotent stem cell line",
                "whole organisms",
                "stem cell"
            ]
        }
    },
    "product_id": {
            "product_id": {
                "title": "Product ID",
                "description": "The product identifier provided by the originating lab or vendor.",
                "type": "string"
            }
    },
    "lot_id": {
            "lot_id":{
	   "title": "Lot ID",
	   "description": "The lot identifier provided by the originating lab or vendor.",
	   "type": "string"
            }
    },
    "source": {
            "source": {
	   "title": "Source",
	   "description": "The originating lab or vendor.",
	   "comment": "See source.json for available identifiers.",
	   "type": "string",
	   "linkTo": "Source"
            }
    },
    "notes": {
        "notes": {
            "title": "Notes",
            "description": "Additional information.",
            "type": "string",
            "permission": "import_items"
        }
    },
    "strains": {
        "strain_background": {
            "title": "Strain background",
            "description": "The specific parent strain designation of a non-human donor.",
            "type": "string"
        },
        "strain_name": {
            "title": "Strain name",
            "description": "The specific strain designation of a non-human donor.",
            "type": "string"
        }
    },
    "genomic_alterations": {
        "genotype": {
            "title": "Strain genotype",
            "description": "The genotype of the strain according to accepted nomenclature conventions.",
            "type": "string"
        },
        "mutagen": {
            "title": "Mutagen",
            "description": "The mutagen used to create the strain, if applicable",
            "type": "string",
            "enum": [
                "bombardment",
                "gamma radiation",
                "X-ray radiation",
                "UV radiation",
                "PTT",
                "transposon",
                "TMP/UV",
                "unknown",
                "none"
            ]
        },
        "constructs": {
            "title": "DNA constructs",
            "description": "Expression or targeting vectors stably or transiently transfected (not RNAi).",
            "type": "array",
            "default": [],
            "items": {
                "title": "DNA Constructs",
                "description": "An expression or targeting vector stably or transiently transfected (not RNAi).",
                "comment": "See contstruct.json for available identifiers.",
                "type":  "string",
                "linkTo": "Construct"
            }
        },
        "mutated_gene": {
            "title": "Mutated gene",
            "description": "The gene that was altered/disrupted resulting in a loss of function.",
            "comment": "See target.json for available identifiers.",
            "type": "string",
            "linkTo": "Target"
        }
    },
    "assay": {
        "assay_term_name": {
            "@id": null,
            "title": "Assay name",
            "description": "OBI (Ontology for Biomedical Investigations) ontology term for the assay.",
            "default": "",
            "type": "string"
        },
        "assay_term_id": {
            "@type": "@id",
            "title": "Assay ID",
            "description": "OBI (Ontology for Biomedical Investigations) ontology identifier for the assay.",
            "type": "string",
            "pattern": "^(OBI|NTR):[0-9]{7}$"
        }
    }
}
