{
    "description": "Schema for reporting the 'phantumpeakqualtools run_spp.R' output as a quality metric",
    "id": "/profiles/phantompeaktools_spp_quality_metric.json",
    "$schema": "http://json-schema.org/draft-04/schema#",
    "type": "object",
    "required": ["step_run","quality_metric_of"],
    "additionalProperties": false,
    "identifyingProperties": ["uuid"],
    "mixinProperties": [
        { "$ref": "mixins.json#/schema_version" },
        { "$ref": "quality_metric.json#/properties" },
        { "$ref": "mixins.json#/uuid" },
        { "$ref": "mixins.json#/submitted"},
        { "$ref": "mixins.json#/aliases" },
        { "$ref": "mixins.json#/standard_status"},
        { "$ref": "mixins.json#/assay" }
   ],
    "properties": {
        "schema_version": {
            "default": "1"
        },
        "attachment": {
            "title": "QC metric document metadata",
            "type": "object",
            "additionalProperties": false,
            "formInput": "file",
            "properties": {
                "download": {
                    "title": "File Name",
                    "type": "string"
                },
                "href": {
                    "comment": "Internal webapp URL for document file",
                    "type": "string"
                },
                "type": {
                    "title": "MIME type",
                    "type": "string",
                    "enum": [
                        "text/plain"
                    ]
                },
                "size": {
                    "title": "File size",
                    "type": "integer"
                }
            }
        },
        "ChIP data read length": {
            "type": "number",
            "description": "SPP: ChIP data read length"
        },
        "FDR threshold": {
            "type": "number",
            "description": "SPP: FDR threshold"
        },
        "Minimum cross-correlation shift": {
            "type": "number",
            "description": "SPP: Minimum cross-correlation shift"
        },
        "Minimum cross-correlation value": {
            "type": "number",
            "description": "SOO: Minimum cross-correlation value"
        },
        "Normalized Strand cross-correlation coefficient (NSC)": {
            "type": "number",
            "description": "SPP: Normalized Strand cross-correlation coefficient (NSC)"
        },
        "Phantom Peak Quality Tag": {
            "type": "number",
            "description": "SPP: Phantom Peak Quality Tag"
        },
        "Phantom peak Correlation": {
            "type": "number",
            "description": "SPP: Phantom peak Correlation"
        },
        "Phantom peak location": {
            "type": "number",
            "description": "SPP: Phantom peak location"
        },
        "Relative Strand cross-correlation Coefficient (RSC)": {
            "type": "number",
            "description": "SPP: Relative Strand cross-correlation Coefficient (RSC)"
        },
        "Top 3 cross-correlation values": {
            "description": "SPP: Top 3 cross-correlation values",
            "type": "array",
            "default": [],
            "items": {
                "description": "",
                "type":  "number"
            }
        },
        "Top 3 estimates for fragment length": {
            "description": "SPP: Top 3 estimates for fragment length",
            "type": "array",
            "default": [],
            "items": {
                "description": "",
                "type":  "number"
            }
        },
        "Window half size": {
            "type": "number",
            "description": "SPP: Window half size"
        },
        "exclusion(max)": {
            "type": "number",
            "description": "SPP: exclusion(max)"
        },
        "exclusion(min)": {
            "type": "number",
            "description": "SPP: exclusion(min)"
        },
        "strandshift(max)": {
            "type": "number",
            "description": "SPP: strandshift(max)"
        },
        "strandshift(min)": {
            "type": "number",
            "description": "SPP: strandshift(min)"
        },
        "strandshift(step)": {
            "type": "number",
            "description": "SPP: strandshift(step)"
        }
    }
}
