{
    "description": "Schema for reporting the specific calculation of an quality metrics",
    "id": "/profiles/quality_metric.json",
    "$schema": "http://json-schema.org/draft-04/schema#",
    "type": "object",
    "required": ["step_run"],
    "additionalProperties": false,
    "identifyingProperties": ["uuid"],
    "mixinProperties": [
        { "$ref": "mixins.json#/schema_version" },
        { "$ref": "mixins.json#/uuid" },
        { "$ref": "mixins.json#/submitted"},
        { "$ref": "mixins.json#/standard_status"},
        { "$ref": "mixins.json#/assay" }
   ],
    "properties": {
        "schema_version": {
            "hidden comment": "Bump the default in the subclasses."
        },
        "step_run": {
            "title": "Analysis Step",
            "description": "Reference to analysis step run in pipeline",
            "type": "string",
            "linkTo": "AnalysisStepRun"
        },
        "quality_metric_of": {
            "title": "Files",
            "description": "One or more files that this metric either applies to or is calculated from.",
            "type": "array",
            "default": [],
            "items": {
                "title": "File",
                "description": "A particular file associated with this quality metric.",
                "comment": "See file.json for a list of available identifiers.",
                "type": "string",
                "linkTo": "File"
            }
        }
    }
}
