{
    "title": "Worm donor",
    "description": "Schema for submitting a worm donor.",
    "id": "/profiles/worm_donor.json",
    "$schema": "http://json-schema.org/draft-04/schema#",
    "type": "object",
    "required": [ "award", "lab", "organism"],
    "identifyingProperties": ["uuid", "accession", "aliases"],
    "additionalProperties": false,
    "mixinProperties": [
        { "$ref": "mixins.json#/schema_version" },
        { "$ref": "mixins.json#/uuid" },
        { "$ref": "donor.json#/properties" },
        { "$ref": "mixins.json#/accession" },
        { "$ref": "mixins.json#/aliases" },
        { "$ref": "mixins.json#/attribution" },
        { "$ref": "mixins.json#/accessioned_status" },
        { "$ref": "mixins.json#/source" },
        { "$ref": "mixins.json#/submitted" },
        { "$ref": "mixins.json#/notes" },
        { "$ref": "mixins.json#/strains"},
        { "$ref": "mixins.json#/genomic_alterations"}
    ],
    "properties": {
        "schema_version": {
            "default": "1"
        },
        "genotype": {
            "description": "The genotype of the strain according to accepted nomenclature conventions: http://www.wormbase.org/about/userguide/nomenclature#k89607hgcf24ea13jbid5--10."
        },
        "num_times_outcrossed": {
            "title": "Number of times outcrossed",
            "description": "The number of out/backcrossed when constructing the strain",
            "type": "string",
            "pattern": "^x(\\d+?)|unknown|new\\s+line$" 
        },
        "outcrossed_strain": {
            "title": "Outcrossed strain background",
            "description": "The strain used for backcrossing.",
            "comment": "For worm strains, see worm_donor.json for available identifiers.",
            "type": "string",
            "linkTo": "WormDonor"
        },
        "documents": {
            "title": "Strain documents",
            "description": "Documents that describe the strain and its generation.",
            "type": "array",
            "default": [],
            "items": {
                "title": "Strain document",
                "description": "A document that describes the strain and/or its generation.",
                "comment": "See document.json for available identifiers.",
                "type": "string",
                "linkTo": "Document"
            }
        },
        "organism":{ 
            "linkEnum": [
                "2732dfd9-4fe6-4fd2-9d88-61b7c58cbe20", 
                "e3ec4c1b-a203-4fe7-a013-96c2d45ab242", 
                "69efae2b-4df5-4957-81da-346f1b93cb98", 
                "a7e711b9-534c-44a3-a782-2a15af620739", 
                "451f9e49-685d-40d5-ad89-760b2512262a"
            ]
        },
        "status": {
            "enum" : [
                "in progress",
                "deleted",
                "replaced",
                "released",
                "revoked",
                "preliminary",
                "proposed"
            ]
        },
        "dbxrefs": {
            "@type": "@id",
            "rdfs:subPropertyOf": "rdfs:seeAlso",
            "title": "External identifiers",
            "description": "Unique identifiers from external resources.",
            "type": "array",
            "default": [],
            "items": {
                "title": "External identifier",
                "description": "A unique identifier from external resource.",
                "type":  "string",
                "pattern": "^cgc:.+$"
            }
        }
    }
}
